﻿  main.cpp
     Создается библиотека D:\C++\TangoTraining\tangosecondclient\x64\Debug\TangoSecondClient.lib и объект D:\C++\TangoTraining\tangosecondclient\x64\Debug\TangoSecondClient.exp
LINK : warning LNK4217: Символ "?unlock@omni_mutex@@QEAAXXZ (public: void __cdecl omni_mutex::unlock(void))", определенный в "omniORB4d.lib(omniInternal.o)", импортирован "main.obj" в функции ""public: virtual __cdecl Tango::AttributeValue_4::~AttributeValue_4(void)" (??1AttributeValue_4@Tango@@UEAA@XZ)".
LINK : warning LNK4217: Символ "??0init_t@omni_thread@@QEAA@XZ (public: __cdecl omni_thread::init_t::init_t(void))", определенный в "omnithreadd.lib(nt.o)", импортирован "main.obj" в функции ""void __cdecl `dynamic initializer for 'omni_thread_init''(void)" (??__Eomni_thread_init@@YAXXZ)".
LINK : warning LNK4217: Символ "??1init_t@omni_thread@@QEAA@XZ (public: __cdecl omni_thread::init_t::~init_t(void))", определенный в "omnithreadd.lib(nt.o)", импортирован "main.obj" в функции ""void __cdecl `dynamic atexit destructor for 'omni_thread_init''(void)" (??__Fomni_thread_init@@YAXXZ)".
LINK : warning LNK4217: Символ "?empty_string@_CORBA_String_helper@@2QEBDEB (public: static char const * const _CORBA_String_helper::empty_string)", определенный в "omniORB4d.lib(corbaString.o)", импортирован "main.obj" в функции ""public: static void __cdecl _CORBA_String_helper::dealloc(char *)" (?dealloc@_CORBA_String_helper@@SAXPEAD@Z)".
COS4d.lib(CosEventCommSK.o) : warning LNK4099: "COSd.pdb" PDB не найден с "COS4d.lib(CosEventCommSK.o)" или на "D:\C++\TangoTraining\tangosecondclient\x64\Debug\COSd.pdb"; компоновка объекта выполняется как при отсутствии отладочных данных
COS4d.lib(CosEventChannelAdminSK.o) : warning LNK4099: "COSd.pdb" PDB не найден с "COS4d.lib(CosEventChannelAdminSK.o)" или на "D:\C++\TangoTraining\tangosecondclient\x64\Debug\COSd.pdb"; компоновка объекта выполняется как при отсутствии отладочных данных
COS4d.lib(CosNotificationSK.o) : warning LNK4099: "COSd.pdb" PDB не найден с "COS4d.lib(CosNotificationSK.o)" или на "D:\C++\TangoTraining\tangosecondclient\x64\Debug\COSd.pdb"; компоновка объекта выполняется как при отсутствии отладочных данных
COS4d.lib(CosNotifyCommSK.o) : warning LNK4099: "COSd.pdb" PDB не найден с "COS4d.lib(CosNotifyCommSK.o)" или на "D:\C++\TangoTraining\tangosecondclient\x64\Debug\COSd.pdb"; компоновка объекта выполняется как при отсутствии отладочных данных
COS4d.lib(CosNotifyFilterSK.o) : warning LNK4099: "COSd.pdb" PDB не найден с "COS4d.lib(CosNotifyFilterSK.o)" или на "D:\C++\TangoTraining\tangosecondclient\x64\Debug\COSd.pdb"; компоновка объекта выполняется как при отсутствии отладочных данных
COS4d.lib(CosNotifyChannelAdminSK.o) : warning LNK4099: "COSd.pdb" PDB не найден с "COS4d.lib(CosNotifyChannelAdminSK.o)" или на "D:\C++\TangoTraining\tangosecondclient\x64\Debug\COSd.pdb"; компоновка объекта выполняется как при отсутствии отладочных данных
  TangoSecondClient.vcxproj -> D:\C++\TangoTraining\tangosecondclient\x64\Debug\TangoSecondClient.exe
