^D:\C++\TANGOTRAINING\TANGOSECONDCLIENT\TANGOSECONDCLIENT\MAIN.CPP
D:\C++\TANGOTRAINING\TANGOSECONDCLIENT\TANGOSECONDCLIENT\X64\DEBUG\VC142.PDB
D:\C++\TANGOTRAINING\TANGOSECONDCLIENT\TANGOSECONDCLIENT\X64\DEBUG\VC142.IDB
D:\C++\TANGOTRAINING\TANGOSECONDCLIENT\TANGOSECONDCLIENT\X64\DEBUG\MAIN.OBJ
