^D:\C++\TANGOTRAINING\TANGOSECONDCLIENT\TANGOSECONDCLIENT\X64\DEBUG\MAIN.OBJ
D:\C++\TANGOTRAINING\TANGOSECONDCLIENT\X64\DEBUG\TANGOSECONDCLIENT.EXE
D:\C++\TANGOTRAINING\TANGOSECONDCLIENT\X64\DEBUG\TANGOSECONDCLIENT.ILK
D:\C++\TANGOTRAINING\TANGOSECONDCLIENT\X64\DEBUG\TANGOSECONDCLIENT.PDB
